id,name,img,created_at,updated_at,ext_link,summary,text,img_source,img320,ext_link_name,math_value,is_private,tags,magic
11,Natural Units,"",2018-08-31 11:12:00,2018-09-02 06:13:00,https://en.wikipedia.org/wiki/Natural_units,measurements based on physical constants,"Speed of light, Planck constant, Elementary Charge, Vacuum permittivity, Vacuum permeability, Impedance of free space, Joshephon constant, von Klitzing constant, Coulomb's constant, Gravtitation constant, Boltzman constant, Electron rest mass","","",,,f,{},
40,the perfect note program,"",2018-09-13 12:28:57.8048,2018-09-13 12:29:16.008372,"","","A note program should be simple, clean and easy to use. The note itself should be basic, as few features, and complications as possible. It needs to be at least exportable to a simple format, i.e. utf-8. it needs to be able to cross reference with other notes. It needs to be viewable by others, on the internet, and it needs be available offline. It needs to be searchable, indexable in multiple ways, especially by a referenced time and location.","","","",,f,{},
43,fix textfield,"",2018-09-13 12:32:14.056688,2018-09-13 18:44:30.168682,"",done,"<div>trying this <strong>out</strong>,<br> i hope <em>it works</em>!!<br><br></div><div>holy cow!!&nbsp;<br>i think it works</div><blockquote>bloop</blockquote>","","","",,t,{},
17,Planck Length,https://wikimedia.org/api/rest_v1/media/math/render/svg/5a851c2d0d97d612a8def6d36d8a36d44b978a1f,2018-09-02 07:10:00,2018-09-17 15:23:58.420802,https://en.wikipedia.org/wiki/Planck_length,1.616229(38)×10−35 metres. ,"<div>The Planck length is about 10−20 times the diameter of a proton. 100,000,000,000,000,000,000,000,000,000,000,000 (1 undecillion) plancks = 1.61605 meters</div>","","","",,f,{},
54,Sun,https://upload.wikimedia.org/wikipedia/commons/5/54/Sun_white.jpg,2018-09-17 02:44:12.038098,2018-09-17 02:44:12.038098,https://en.wikipedia.org/wiki/Sun,"","<div>7.5–8.5 <a href=""https://en.wikipedia.org/wiki/Kiloparsec"">kpc</a> (25,000–28,000 light-years) from the <a href=""https://en.wikipedia.org/wiki/Galactic_Center"">Galactic Center</a>.<br>Mean distance to Earth: 1 <a href=""https://en.wikipedia.org/wiki/Astronomical_unit"">au</a> ≈ 1.496×108 km, or 8 min 19 s at <a href=""https://en.wikipedia.org/wiki/Speed_of_light"">light speed</a></div>",https://en.wikipedia.org/wiki/Sun#/media/File:Sun_white.jpg,https://upload.wikimedia.org/wikipedia/commons/thumb/5/54/Sun_white.jpg/480px-Sun_white.jpg,Wikipedia,,f,{},
13,Institute for the History of Science and Technology,https://upload.wikimedia.org/wikipedia/commons/0/0f/IIET-logo.JPG,2018-09-02 06:15:00,2018-09-17 16:41:49.486084,http://ihst.ru/,"Institute for the History of Science and Technology  named after S. I. Vavilov RAS, Moscow, Russia","<div>It seems like a very interesting institution, with an interesting history. However, im having lots of trouble finding much in English. All I can tell is that they seem to have had a lot of influence to scientific artilcles on wikipedia, even in English. I assume it is related to the Russian Academy of Sciences.</div>",https://commons.wikimedia.org/wiki/File:IIET-logo.JPG?uselang=ru,https://upload.wikimedia.org/wikipedia/commons/thumb/0/0f/IIET-logo.JPG/320px-IIET-logo.JPG,"",,f,{},
30,Wrangel Island (о́стров Вра́нгеля),https://upload.wikimedia.org/wikipedia/commons/4/4c/Wrangel_Island_tundra.jpg,2018-09-09 08:28:00,2018-09-17 13:07:42.115795,https://en.wikipedia.org/wiki/Wrangel_Island,"Frozen Tundra, Russian Island in the Arctic Ocean","<div>Crosses the 180° meridian, and the international dateline moves around it. Most of the island is a Russian nature reserve. Final resting place of the woolly mammoth.&nbsp;<br>I think it is very appropriate, an island with a number of people contesting to have ""discovered"" it, should be named for the man unable to find it.<br>It is on the UNESCO world heritage list since 2004.</div>",https://commons.wikimedia.org/wiki/File:Wrangel_Island_tundra.jpg,https://upload.wikimedia.org/wikipedia/commons/thumb/4/4c/Wrangel_Island_tundra.jpg/320px-Wrangel_Island_tundra.jpg,Wikipedia,,f,{},
51,Parsec,"",2018-09-16 18:43:24.090548,2018-09-17 13:25:29.323073,https://en.wikipedia.org/wiki/Parsec,about 3.26 lightyears,"<blockquote>""A parsec is defined as the distance at which one astronomical unit subtends an angle of one arcsecond which corresponds to&nbsp;<br>648000 / π astronomical units. ""</blockquote><div>30856780000000000 meters<br>First described by Herbert Hall Turner.</div>","","","",30856780000000000,f,{},
63,William Herschel,https://upload.wikimedia.org/wikipedia/commons/3/36/William_Herschel01.jpg,2018-09-17 13:37:37.968824,2018-09-17 13:41:18.325657,https://en.wikipedia.org/wiki/William_Herschel,German-British astronomer and composer.,"<div>Discovered Uranus, infrared, the moons Titania and Oberon of Uranus,&nbsp; the moons Enceladus and Mimas of Saturn, and was first president of the Royal Astronomical Society.</div>",https://en.wikipedia.org/wiki/William_Herschel#/media/File:William_Herschel01.jpg,https://upload.wikimedia.org/wikipedia/commons/thumb/3/36/William_Herschel01.jpg/392px-William_Herschel01.jpg,Wikipedia,,f,{},
23,Metre (Meter),https://upload.wikimedia.org/wikipedia/commons/a/a5/US_National_Length_Meter.JPG,2018-09-04 16:22:00,2018-09-17 13:51:50.749177,https://en.wikipedia.org/wiki/Metre,"","<div>The metre is defined as the length of the path travelled by light in a vacuum in 1/299,792,458 second. The imperial inch is defined as 0.0254 metres (2.54 centimetres or 25.4 millimetres). One metre is about ​3 3⁄8 inches longer than a yard, i.e. about ​39 3⁄8 inches. -wikipedia</div>",https://commons.wikimedia.org/wiki/File:US_National_Length_Meter.JPG,"",Wikipedia,1,f,{},
68,Definitition of Stability,"",2018-09-18 02:40:50.037182,2018-09-18 02:40:50.037182,https://www.merriam-webster.com/dictionary/stability,"","<div>1 <strong>: </strong>the quality, state, or degree of being <a href=""https://www.merriam-webster.com/dictionary/stable"">stable</a>: such as<br>a <strong>: </strong>the strength to stand or endure <strong>: </strong><a href=""https://www.merriam-webster.com/dictionary/firmness"">firmness</a><br>b <strong>: </strong>the property of a body that causes it when disturbed from a condition of equilibrium or steady motion to develop forces or moments that restore the original condition<br>c <strong>: </strong>resistance to chemical change or to physical disintegration</div><div>2 <strong>: </strong>residence for life in one monastery</div>","","",merriam-webster,,f,{},
107,misery index,https://thumbor.forbes.com/thumbor/960x0/smart/https%3A%2F%2Fblogs-images.forbes.com%2Fstevehanke%2Ffiles%2F2018%2F02%2FHankes-Annual-Misery-Index-2017.jpg%3Fwidth%3D960,2018-09-20 04:35:54.502261,2018-09-20 04:35:54.502261,https://en.wikipedia.org/wiki/Misery_index_(economics),"","<div>my opinion, unemployment and inflation is quite enough. i would imagine the point is to have a simple, universal, objective way to measure. The more complicated versions seem to a) show very little difference between the simple, b) may only be useful in the u.s.&nbsp;<br>but this of course only shows economic misery. true misery doesn't need to have anything to do with economics.</div>","","",Wikipedia,,f,{},
67,Stability & Independence,"",2018-09-18 02:37:33.298314,2018-09-18 06:54:35.672108,"",or Why I'm Avoiding Google,"<div>Personally, ""bleeding-edge"" always reminds me of that image described in Apocalypse Now involving a snail. I won't describe it here, its pretty chilling.<br>I'm sure nothing in the following paragraphs is new to anyone. I am restating it for my own purposes.<br><br>Stability is something spoken of a lot, in every area of human society, but achieved rarely, in very limited scopes, and for a very limited time.<br>In the technology of the last few decades especially, while few inventions are truly new, and very few things, if anything, have been discovered, the tools we use are constantly being reshaped and modified in the attempt to better serve our needs and desires.<br>This leads to a very interesting reality. The vast majority of our data would be completely inaccessible even 30 years ago. Even with the tools have ten years ago, to even get a visual look at most of our data would be impossible. Presumably, the future will have conversion tools to adapt our current work, and some things will be backwards compatible. However, it can be assumed that the tools of ten and thirty years from now will have similar difficulties.<br><br>Independence in this context refers to non-reliance on the super-sized organizations and corporations. This may sound juvenile, but it is my belief they have far too much influence over human affairs, their only credentials for such a position being that they once made a useful product, and we, humanity, have chosen to hand them a bunch of money.<br>It may seem counter to the ideal of stability to avoid the use of these standard tools. However, most of these entities are themselves relatively recent, and will themselves sooner or later disappear, and so in the long run their proprietary tools are not as stable as perceived. Instead the stable tools are the ""tools behind the tools,"" the ones everyone has access to, being used and developed by numerous&nbsp; organizations.<br>Corporations, while they may have a kind of person-hood in the law, are in fact a collection of individuals. Some of whom should be considered responsible for the abuses of the corporation. And similarly, someone wishes to associate with a corporation needs to consider the personal abuses of those responsible for that company.<br>An ethical person needs to evaluate before associating with anyone.<br>Also, I need to note, I do not consider all the super-rich unethical. Nor do I consider it unethical to be, or desire to be super-rich. This is not an indictment of anyone's character. Rather, considering the frequency of abuses by people of authority in general, even those granted authority with considerable cause, association with the super-sized companies, and thereby association with those responsible for them, needs to be considered with care. As much care as one would take before nominating anyone to any position of authority. Since such care is usually impractical,&nbsp; if not impossible, it is usually best to avoid the issue entirely.<br>In this global economy, the government in charge of a specific organization or corporation also needs to be similarly evaluated.</div>","","","",,f,{},
69,Definitition of Independent,"",2018-09-18 02:46:15.613762,2018-09-18 02:46:43.815467,https://www.merriam-webster.com/dictionary/independent,"",<div>1 <strong>: </strong>not dependent: such as<br>a<br>(1) <strong>: </strong>not subject to control by others <strong>: </strong>self-governing<br>(2) <strong>: </strong>not affiliated with a larger controlling unit an independent bookstore<br>b<br>(1) <strong>: </strong>not requiring or relying on something else <strong>: </strong>not contingent an independent conclusion<br>(2) <strong>: </strong>not looking to others for one's opinions or for guidance in conduct<br>(3) <strong>: </strong>not bound by or committed to a political party<br>c<br>(1) <strong>: </strong>not requiring or relying on others (as for care or livelihood) independent of her parents<br>(2) <strong>: </strong>being enough to free one from the necessity of working for a living a person of independent means<br>d <strong>: </strong>showing a desire for freedom an independent manner<br>e<br>(1) <strong>: </strong>not determined by or capable of being deduced or derived from or expressed in terms of members (such as axioms or equations) of the set under considerationespecially <strong>: </strong>having linear independencean independent set of vectors <br>(2) <strong>: </strong>having the property that the joint probability (as of events or samples) or the joint probability density function (as of random variables) equals the product of the probabilities or probability density functions of separate occurrence</div><div><br></div>,"","",merriam-webster,,f,{},
71,Ethical Behavior,"",2018-09-18 07:05:35.214483,2018-09-18 07:08:04.179748,https://en.wikipedia.org/wiki/Ethics,"","<div>Simply put, an ethical person is one who has a moral code, and behaves accordingly.<br><br>I would also consider it unethical to behave against the law of the land. If a person does not agree with the laws, they should work to change them, or move.<br>An exception must be made for those like George Washington. Clearly rebelling against the king is a crime. I would not consider every nation founded through revolution criminal. Such behavior requires a consensus of contemporaries, as well as a consensus of historians to agree with the need. In short ""history will decide,""&nbsp; and ""victors write the history books,"" and until then it is highly suspicious. And such a judgement is mutable.<br>Also the common morality of the society must be taken into account. Even if it is legal, if the people frown upon it it must be avoided.</div>","","",Wikipedia,,f,{},
90,Verizon Communications (Bell Atlantic),"",2018-09-18 08:06:24.854588,2018-10-02 09:42:32.767295,"","","<div>&nbsp;Cable television, Landline, Mobile phone, Broadband Digital television, IPTV, Digital Media, Internet, Telematics<br>Founder: AT&amp;T Corporation<br>CEO: Hans Vestberg<br>Revenue: $126 Billion</div>","","","",,f,{bg-danger},
110,Freedom in the World,"",2018-09-20 11:50:19.242809,2018-09-20 11:50:19.242809,https://en.wikipedia.org/wiki/Freedom_in_the_World,"a list of nations of the world, with ratings","<div>While I can imagine a hypothetical, ""righteous,"" partly-free country; (If I were designing a country would it be entirely free?); however, in practice the idea makes me very nervous, and I doubt there are very many partly-free countries that I would be happy to live in.&nbsp;<br>(Weirdly almost the opposite of my views on gun control. In theory there should not be any. The whole idea was that gun control is designed to repress the masses. Personal gun ownership is a defense against authoritarian governments. Any gun control is a sign of the failure of the great democratic experiment. However, when I see concealed-carry in practice, I get very nervous.)</div>","","","",,f,{},
25,Germany,https://upload.wikimedia.org/wikipedia/commons/thumb/d/da/Coat_of_arms_of_Germany.svg/788px-Coat_of_arms_of_Germany.svg.png,2018-09-06 07:18:00,2018-09-20 12:18:33.107283,https://en.wikipedia.org/wiki/Germany,"","<div>Mentioned by Tacitus as having existed in 98 a.d.<br>Wilhelm the First, King of Prussia became the first Emperor of the new nation state in 1871.<br>It should not need to be said that have a very horrible history.<br>Modern Germany, i.e. The Federal Republic of Germany, began in 1957 and is rated a 1 in ""freedom"" for both Political Rights and Civil Liberties. They also have no death penalty.</div>",https://en.wikipedia.org/wiki/Germany#/media/File:Coat_of_arms_of_Germany.svg,https://upload.wikimedia.org/wikipedia/commons/thumb/d/da/Coat_of_arms_of_Germany.svg/369px-Coat_of_arms_of_Germany.svg.png,Wikipedia,,f,{},
113,Kim Dotcom,"",2018-09-20 12:39:29.458955,2018-09-20 12:39:29.458955,"","","<div>Currently wanted for extradition to the United States for crimes apparently including ""racketeering, conspiring to commit copyright infringement, and conspiring to commit money laundering.""&nbsp;<br>I have not really looked into his case, but I am, in general against copyright laws. The other things should definitely stay illegal.<br>Also, a crime is usually a crime, even if you disagree with the law.<br>And a bad reputation is sometimes worse.</div>","","","",,f,{bg-danger},
114,opposition to copyright,"",2018-09-20 12:46:26.911698,2018-09-20 12:46:26.911698,https://en.wikipedia.org/wiki/Opposition_to_copyright,"","<div>Imagine what if musicians got paid for playing music? Actors got paid for acting?<br>This definitely needs expansion, and more thought, and references to ""fair use""</div>","","",wikipedia,,f,{},
115,"Dropbox, Inc","",2018-09-20 12:53:10.874802,2018-09-20 13:31:36.542565,https://www.dropbox.com/,cloud backup,"<div>free for &lt; 2 gb<br><br>Founded in June 2007, by Drew Houston and Arash Ferdowsi, in San Francisco, CA, U.S.<br>Revenue &lt; $1 billion. (it may have hit a billion at some point in 2017, but now seems to be less)</div>","","",dropbox.com,,f,{bg-success},
118,"iDrive, Inc","",2018-09-20 13:26:59.630464,2018-09-20 13:31:07.947696,https://www.idrive.com/,cloud backup,"<div>free for &lt; 5 gb<br><br>Founder and CEO: Raghu Kulkarni 1995, Calabasas, California.<br><br>it seems it could be said it was originally founded in 1998 by&nbsp; Jeff Bonforte, along with Chris Lindland, Patrick Fenton, Tim Craycroft with Rich MacAlmon, John Reddig and Lou Perrelli as angel investors. It was bought by then named Pro Soft Net in 2002, who changed their name to ""idrive, inc."" Jeff Bonforte now works for Yahoo.</div>","","",idrive.com,,f,{bg-success},
122,Zoho Corporation,"",2018-09-20 13:36:30.153681,2018-09-20 13:44:04.745615,http://www.zohocorp.com/,email service,"<div>A great system. Requires a phone number to send an SMS text to.<br>Founder: Sridhar Vembu and Tony Thomas 1996, Chennai, Tamil Nadu, India.&nbsp;</div>","","",zoho corp,,f,{bg-success},
126,United Internet,"",2018-09-20 14:02:29.482354,2018-09-20 14:02:29.482354,https://en.wikipedia.org/wiki/United_Internet,own mail.com,"<div>You may need to be careful about giving them your credit card information.<br>Founded 1988, Montabaur, Rhineland-Palatinate, Germany</div>","","",Wikipedia,,f,{bg-warning},
127,mail.com,"",2018-09-20 14:06:58.159318,2018-09-20 14:06:58.159318,https://en.wikipedia.org/wiki/Mail.com,email service,"<div>very old fashioned email service (not in a good way). hosted in Pennsylvania but currently owned By United Internet in Germany.<br>it does work, but there are security concerns, and business practice issues.<br>founded 1995 by Gerald Gorman and Gary Millin.</div>","","",Wikipedia,,f,{bg-warning},
130,Mozilla (moz://a),"",2018-09-20 14:29:26.108329,2018-09-20 14:29:26.108329,https://en.wikipedia.org/wiki/Mozilla,creators of Firefox,"<div>Founded in 1998 by Netscape, (They used to be big, but lost the browser war to Internet Explorer. At one time they were called ""Mosaic"". Now they're defunct. The name is owned by Verizon.)<br>Mountain View, California, United States.<br>Revenue: $421.3 million (Mostly from google)<br><br></div>","","",Wikipedia,,f,{bg-success},
137,Heroku,"",2018-09-20 14:44:39.979621,2018-09-20 14:44:39.979621,http://heroku.com/,"cloud hosting for rails, etc.","<div>Founded 2007, by James Lindenbaum, Adam Wiggins, Orion Henry; San Francisco California, U.S.<br>Bought in 2010 by salesforce.com for $212 million.</div>","","",heroku.com,,f,{bg-success},
143,cloudaccess.net,"",2018-09-21 04:50:34.612795,2018-09-21 05:27:36.497437,"",hosting service,"<div>a wordpress host<br>CEO: Jonathan Gafill<br>Created: 2008, Traverse City, Michigan, U.S.<br>&nbsp; &nbsp; 2009? 2011? Doesn't seem to have gotten off the ground until 2017.<br>overall seems like a good service.</div>","","","",,f,{},
152,Etsy,"",2018-09-21 13:14:37.63739,2018-09-21 13:14:37.63739,https://en.wikipedia.org/wiki/Etsy,vintage & handmade shopping,"<div>Founded: 2017, by (iospace) Robert Kalin, Chris Maguire, Haim Schoppik, and Jared Tarbell. Brooklyn, New York, U.S.<br>Revenue: $195.6 million</div>","","",Wikipedia,,f,{},
153,Complete Date Time,"",2018-09-23 03:55:16.701922,2018-09-23 03:55:16.701922,"","","<div>make sure date search works. and works correctly for:<br>hebrew dates,<br>today in history.<br>this time.<br>hebrew dates.<br>this hebrew date in history.<br>(can we do like calendar reminders?)</div>","","","",,t,{},
163,Ubuntu Popularity Contest,"",2018-09-23 04:33:46.573895,2018-09-23 04:48:36.17455,https://popcon.ubuntu.com/,popularity-contest,"<div>Keeps track of the popularity of ubuntu packages.<br><br></div><div>to participate run:</div><pre>sudo dpkg-reconfigure popularity-contest</pre><div><br>im the type to automatically choose ""no"" when asked if I want to participate in these things, but since ubuntu is gracious enough to make the information publicly available, I am more than happy to participate.</div>","","",ubuntu popcon,,f,{},
165,the tiobe index,"",2018-09-23 04:55:28.18559,2018-09-23 04:57:37.418725,https://www.tiobe.com/tiobe-index/,"","<div>they create an interesting chart and graph, showing the current popularity of&nbsp; programming languages. based on number of courses, and websites dedicated to the language.</div>","","",tiobe index,,f,{},
169,Ruby Toolbox,"",2018-09-23 05:26:13.853691,2018-09-23 05:28:41.589898,https://www.ruby-toolbox.com/,"","<div>created: 2009 by Christoph Olszowka. Hamburg, Germany.<br>a very useful collection of ruby gems. with relevant popularity data.&nbsp; sorted by category.</div>","","",ruby-toolbox.com,,f,{},
187,rails_admin,"",2018-10-02 02:54:53.700224,2018-10-02 02:54:53.700224,"",rails admin gem,"<div>creates a dynamic interface for managing rails data.<br>created: June 2010, by Erik Michaels-Ober, Bogdan Gaza, Petteri Kaapa, Benoit Benezech, Mitsuhiro Shibuya</div>","","","",,f,{bg-warning},
77,Rules For Associating,"",2018-09-18 07:43:32.770376,2018-10-02 07:37:20.450558,"",specifics guidelines for deciding if ZapafUg will associate with a company or association.,"<div>Association = Use of a service, especially a service requiring registration, or payment. <br><br>Super Money = .01% of estimated Global GDP / estimated World Population. <br>Super Money is currently: <strong>~$11.43 Billion</strong><br>Company Revenue should not exceed super money.<br>Key People (Founders &amp; CEO's) personal worth should not exceed super money.<br>Key People should not be convicted felons or fugitives.<br>Key People should not have a ""bad reputation."" That is very vague and needs to be clarified.<br><br>The service should be at least 10 years old. Especially true for any service (e.g. a cloud base service) that stops working if the service shuts down. Some exceptions may then be made for something like downloadable, open source software. Then stability concerns are limited to the current software's development, user base, creators, etc. The future stability of the developer in that case would not be as concerning.<br>Software extensions, ""plugins"" and the like, are an interesting subcategory requiring slightly laxer rules. They operate in the shadow of the main service, and inherit their reputation to a small extent. However, the main service cannot (and should not) take responsibility&nbsp; for third party software. (An illustrative example, in 2017 a Firefox update made all extensions obsolete.&nbsp; A ten year requirement would prohibit most extensions until 2027.)</div>","","","",,f,{},
178,sass-rails,"",2018-09-28 06:34:25.849794,2018-10-02 08:10:51.011971,https://github.com/rails/sass-rails,sass adapter for rails,<blockquote>gem sass-rails</blockquote><div>sass adapter for rails<br>created: 2011 (version 3?) by Yehudah Katz (wycats) and Chris Epstein<br><br></div>,"","",github,,f,{},
200,Basecamp (Company),"",2018-10-02 09:19:04.81746,2018-10-02 09:19:04.81746,https://en.wikipedia.org/wiki/Basecamp_(company),"","<div>(formerly 37signals)<br>Founded: 1999 by Jason Fried, Carlos Segura, Ernest Kim. Chicago, Illionois, United States.<br>David Heinemeier Hansson is a partner.<br>creators of Ruby on Rails.</div>","","",Wikipedia,,f,{},
108,capital punishment by country,"",2018-09-20 04:49:32.930778,2018-10-02 12:16:59.615964,https://en.wikipedia.org/wiki/Capital_punishment_by_country,"","<div>i think in fairness some math needs to be done by population size:<br>Iran 506 : 81 m : 6.24<br>Saudi Arabia 146 : 33 m :&nbsp; 4.42<br>Iraq 125 : 39 m : 3.2<br>China &gt; 1551 : 1,394 m : 1.11<br>Pakistan 60 : 202 m : .29<br>US 23 : 327 m : .07<br>Russia 0 : 146 m : 0<br><br>In my very limited and useless opinion, even killing 1 in 100 million is murderous. An average metropolis, giving the death penalty once every 50 years is just too much.&nbsp; (I know this is almost the cutoff point for the Units States, but that was not the starting point)<br>I am not opposed to the death penalty. It should be limited to extreme cases, like war crimes.<br>A side note, one of the main arguments against the death penalty is its apparent uselessness as a deterrent. No one mentions ""atonement"" any more. Is that purely a religious concept? Does the person need atonement? Does the nation atone for its own failures by enforcing such measures?</div>","","",Wikipedia,,f,{},
218,toy of the year,"",2018-10-03 04:54:29.650037,2018-10-03 04:54:29.650037,https://www.toyretailersassociation.co.uk/toy-year,toy retailer association (england and ireland),"<div>a very distracting site, wish it had pictures.<br>it seems like the u.s. didnt have a similar award until 2000? how is that possible?</div>","","","",,f,{},
219,Torah: the Oral Tradition,"",2018-10-03 05:02:58.150678,2018-10-03 05:02:58.150678,"",An Outline of Rabbinic Literture throughout the Ages.,"<div>by: Noah Aminoah and Yosef Nitzan&nbsp;<br>World Zionist Organization, 1983.<br>A very good, concise book, describing major Jewish writings throughout history.<br>The English is a little weird, like an Israeli who learnt English in a university,&nbsp; and is trying very hard to sound scholarly. It is still very readable.</div>","","","",,f,{},
242,Targum Onkelos / תרגום אונקלוס,"",2018-10-04 05:33:40.917643,2018-10-04 05:33:40.917643,"","","<div>a classic translation of the Torah from Hebrew to Aramaic. A mostly literal translation according to the traditional explanations.<br>Jews have an obligation to read the weekly portion, twice as written, and this translation once.</div>","","","",,f,{},
240,flagfox,"",2018-10-04 04:20:08.390351,2018-10-04 11:30:50.770514,https://flagfox.wordpress.com/,firefox extension,"<div>created: 2000? (based on mozdev.org) 2007? (based on Dave G)<br>developed by: Dave G<br>its main feature is to show in the url a little flag for the hosting country.<br>right clicking this flag, will show a customizable list of links, (like wolfram alpha, internet archive,&nbsp; tinyurl)</div>","","",flagfox blog,,f,{},
245,IBM,"",2018-10-05 03:58:24.215499,2018-10-05 03:58:24.215499,"","","<div>Formerly Computing-Tabulating-Recording Company<br>Founded: 1911, by Charles Ranlett Flint. Endicott, New York. U.S.<br>Revenue: $79.139 billion</div>","","","",,f,{bg-danger},
247,Factory Bot (Rails Testing),"",2018-10-05 04:11:06.849175,2018-10-05 04:11:06.849175,https://github.com/thoughtbot/factory_bot,rails testing,"<div>if your using rails:</div><pre>gem ""factory_bot_rails"", ""~&gt; 4.0""</pre><div><br>created: 2008, by thoughtbot, inc. by Josh Clayton and Joe Ferris</div>","","",github,,f,{},
168,Stack Overflow Tag Usage,"",2018-09-23 05:22:26.072388,2018-10-05 05:17:11.65209,https://api.stackexchange.com/docs/tags#fromdate=2017-09-14&todate=2018-09-14&order=desc&sort=popular&filter=default&site=stackoverflow&run=true,"popular tags, oct 2018","<div>a potentially more interesting list, showing most popular tags for the past year (or whatever desired time-frame). I suppose this does not show popularity, but rather, how many times people have had an issue with a technology.<br><br>these results are strange, either i dont understand what this is supposed to do, or it does not work properly.<br>search 'vba' and get nothing. i thought maybe the tag has to have been created within those dates, but that is not true.<br>also the tag does not have not be the only tag for the question.&nbsp;<br><br>see http://robnyman.github.io/stackoverflow-dashboard/ for a better usage (for my purposes)<br><br>retrieved october 2018:<br>angular5<br>ibm-cloud<br>angular6<br>factory-bot<br>wear-os<br>dialogflow<br>laravel-5.6<br>ibm-cloud-infrastructure<br>symfony4<br>mfmailcomposeviewcontroller<br>discord.js<br>google-colaboratory<br>asp.net-core-2.1<br>google-kubernetes-engine<br>symfony3.4<br>webpack-4<br>firebase-security-rules<br>odoo-11<br>xcode10<br>flutter-layout<br>ubuntu-18.04<br>rxjs6<br>react-props<br>tensorflow-estimator<br>azure-devops-rest-api<br>convolutional-neural-network<br>angular4-router<br>django-2.0<br>kubernetes-ingress<br>r-plotly</div>","","",stackexchage api,,f,{},
248,RobNyman's Stackoverflow Dashboard,"",2018-10-05 05:19:12.287606,2018-10-05 05:34:11.94053,http://robnyman.github.io/stackoverflow-dashboard/,"","<div>very cool:<br>checked for the past year (oct 2018) ::<br>javascript: &nbsp; 246600<br>python:&nbsp; &nbsp; &nbsp; &nbsp;228168<br>java:&nbsp; &nbsp; &nbsp; &nbsp; &nbsp; &nbsp;174697<br>php:&nbsp; &nbsp; &nbsp; &nbsp; &nbsp; &nbsp;127922<br>sql:&nbsp; &nbsp; &nbsp; &nbsp; &nbsp; &nbsp; &nbsp;56157<br>c++:&nbsp; &nbsp; &nbsp; &nbsp; &nbsp; &nbsp; 27909<br>vba:&nbsp; &nbsp; &nbsp; &nbsp; &nbsp; &nbsp; 24522<br>ruby :&nbsp; &nbsp; &nbsp; &nbsp; &nbsp; 13429<br>vb.net:&nbsp; &nbsp; &nbsp; &nbsp; 8960<br>objective-c: 8578<br>matlab:&nbsp; &nbsp; &nbsp; &nbsp;7745<br><br>notes: c# doesn't work. c &amp; c++ give the same answer. and again, this is a list of those who had problems with something people thought should be tagged like that. (a super easy to use tag should have fewer questions despite popularity. although people can be idiots, so maybe that is not true.)</div>","","",github,,f,{},
251,"בראשית רבה 1, 2","",2018-10-05 12:29:47.040218,2018-10-07 03:06:40.561706,"","","<div>..<br>ד""א אמון. אומן. התורה אומרת אני הייתי כלי אומנתו של הקב""ה בנוהג שבעולם מלך ב""ו בונה פלטין אינו בונה אותה מדעת עצמו אלא מדעת אומן.&nbsp;<br>והאומן אינו בונה אותה מדעת עצמו. אלא דיפתראות ופינקסאות יש לו. לדעת היאך הוא עושה חדרים. היאך הוא עושה פשפשין. כך היה הקב""ה מביט בתורה ובורא את העולם. והתורה אמרה בראשית ברא אלוהים. ואין ראשית אלא תורה. המד""א (משלי ח) ה' קנני ראשית דרכו.<br>..</div>","","","",,f,{},
264,"שבת ד' פח ע""א","",2018-10-07 13:13:58.432428,2018-10-07 13:13:58.432428,"","","<div>..<br>דאמר ריש לקיש מאי דכתיב ויהי ערב והי וקר יום הששי ה' יתירה למה לי מלמד שהתנה הקב""ה עם מעשה בראשית ואמר להם אם ישראל מקבלים התורה אתם מקיימין ואם לאו אני מחזיר אתכם לתוהו ובוהו<br>...</div>","","","",,f,{},
267,"ריקנטי בראשית י, לב ד""ב מאלה נפרדו","",2018-10-07 13:53:30.591613,2018-10-07 13:53:30.591613,"","","<div>מאלה נפרדו הגוים וגו' בפסוק זה נרמז כי בדור הפלגה נתן לכל אומה חלקה מן הארץ ושר אחד למעלה עליה ובין כולם שבעים והם שבעים ענפים מן האילן העליון שבעים שרים הסובבים כסא הכבוד והם הנקראים בשיר השירים השומרים הסובבים בעיר כי על ידיהם באים הגזירות מעלה והם שומרים ומליצים כל אחד על אומתו,&nbsp;<br>ונשאר ישראל חלק ה' מן האומות שנ' כי חלק ה' עמו כי יעקב בחר לו ה' וכתיב חלקי ה' אמר נפשי, העם בחר לנחלה לו, ומן הארצות ארץ ישראל שאין עליה שר ומושל רק השם יתעלה ויתברך זהו סוד כי שמך נקרא על עירך ועל עמך, ולזה רמז הכתוב כי בימיו נפלגה הארץ שנחלקה לשבעים מלאכים הממונים עליהם, ובתרגום ירושלמי תרגם הבה נרדה, אם ה' לשבעין מלאכיא דקיימין קדמוהי וכו', ויפץ ה' ונומר ואתגליא מימרא דה' עילוי דרתא ועימיה שבעין מלאכייא כל קבל שבעים עממייא וכל חד וחד לישן עמיה רושם כתביה דיליה ובדרינון מתמון, אמנם אם נרצה לפרש הארץ על הארץ העליונה יהיה פירוש נפלגה הארץ נשגב ונעלם כי קצצו נטיעותיה מן הבנין והבן זה וכבר רמזנונו למעלה.</div>","","","",,f,{},
272,"עבודה זרה ד' ב ע""ב","",2018-10-07 14:15:21.177249,2018-10-07 14:15:21.177249,"","","<div>ואיבעית אימא מקמי דליפוש חרון אף אמר להם הקב""ה במאי עסקתם אומרים לפניו רבש""ע הרבה שווקים תקנינו הרבי מרחצאות עשינו הרבה כסף וזהב הרבינו וכולם לא עשינו אלא בשביל ישראל כדי שיתעסקו בתורה<br>...</div>","","","",,f,{},
274,"רמב""ן ויקרא י""ח כ""ה","",2018-10-07 14:56:21.279189,2018-10-07 15:27:49.772495,https://he.wikisource.org/wiki/%D7%A8%D7%9E%D7%91%22%D7%9F_%D7%A2%D7%9C_%D7%95%D7%99%D7%A7%D7%A8%D7%90_%D7%99%D7%97,"","<div>""And the land you will make tamei and its iniquity will be remembered on it, and the land will expel you."" The verse is strict on relations, because the land becomes tamei through them, and the people who do it will be expelled. And note, relations are an obligation on the body, and not conditional on the land. But the secret of the matter is in the verse (Devarim 32, 8) ""When the Most High bequeathed to the nations, when he seperated the children of Adam; He erected the nations borders, by the count of the children of Yisrael. Because Hashem's portion is his people.."" And the point is, the Honored Hashem created it all. And he placed the power of the lowers with the highers. And he gave to each and every nation in their lands for their nations a star and a constellation as is known, as the astrologers know. That is what is meant by the verse (Devarim 4, 19) ""That Hashem your G-d apportioned them to all the peoples. Because hashem apportioned to all of them constellations in the Heavens. And above them are higher angels, he gave the appointments to be rulers over them. The same idea is in the verse (Daniel 10, 13) ""And the ruler of the Persian Empire stood against me. And like it says (there, verse 20) And Behold! The Ruler of Greece came."" And they are called ""kings"" as it says (there, verse 13) ""And I remained there with the King of Persia.""<br>And behold, The Honored Hashem, he is the G-d of gods and Master of the master, of all the world. But the Land of Israel, the place of its settlement, is the ""Estate of Hashem"" special, to His Name. He did not place upon it any of the angels to be an officer, guard or ruler in his estate when he bequeathed it to his people, special to His Name, the children of his loved ones. And that is the verse (Shemos 19, 5) ""and you will be for me a treasure ... incomplete</div>","","",wikimedia,,f,{incomplete},
275,show children,"",2018-10-08 02:50:33.74078,2018-10-08 02:50:33.74078,"","","<div>each note gets a little box, ""show children"" next to it a drop down box. ""depth""<br>this will show a note with the text of its children to the given depth. for easy reading / printing</div>","","","",,f,{},
276,sort index,"",2018-10-08 02:55:36.265737,2018-10-08 02:55:53.261408,"","","<div>yet another field on note ""sort index"" for easy sort control.<br>im imagining a method in note model.</div><pre>def sort_index
    self[:sort_index] || self.name
end</pre><div><br>and in view or helper or something&nbsp;</div><pre>children.sort_by(&amp;:sort_index).each do |child|
    ...
end</pre><div>blah</div>","","","",,f,{},
277,separate children from parents,"",2018-10-08 02:58:00.964684,2018-10-08 02:58:32.148046,"","","<div>ive been avoiding this. not sure i want to do this but:<br>view would then look like:</div><pre>parent name, summary
..
parent name, summary
note name
note other fields
note ...
note text
child name, summary
...
child name, summary</pre><div><br></div>","","","",,f,{},
258,"ויקרא רבה לו, ד","",2018-10-07 03:08:39.38178,2018-10-08 05:02:56.129251,"","","<div>א""ר ברכיה שמים וארץ לא נבראו אלא בזכות ישראל דכתיב בראשית ברא אלהים ואין ראשית אלא ישראל שנא' (ירמיה ג) קדש ישראל לה' ראשית תבואתו.</div>","","","",,f,{hebrew},
