id,name,parent_id,child_id,note_id
19,,20,19,
21,,24,23,
73,project details,39,31,""
69,source idea,39,40,""
170,,97,96,
171,,99,98,
18,in context,18,17,""
54,,38,36,
20,discovery,22,21,""
53,list,37,35,""
172,,101,100,
173,,100,102,
14,example,15,11,""
13,creator,16,15,""
12,explanation,11,14,""
11,professer at,13,14,""
10,named for,13,12,""
110,,39,37,
111,,13,47,
66,,39,33,
68,,39,38,
112,,48,13,
113,,49,48,
114,,45,46,
115,,44,45,
67,category,33,39,""
74,category,45,43,""
75,category,45,42,""
76,category,45,41,""
116,,45,44,
117,,56,18,
118,,57,25,
119,,58,29,
120,,59,30,
121,,45,32,
122,,31,34,
123,,60,50,
124,,61,51,
125,,51,52,
126,,63,62,
127,,62,61,
128,,23,55,
129,,39,28,
130,,39,27,
132,,16,17,
133,,15,17,
134,,11,17,
135,,39,67,
137,,67,69,
138,,67,70,
139,,67,71,
141,,39,73,
143,,77,71,
144,,67,77,
145,,39,77,
148,,79,72,
149,,80,78,
150,,73,80,
152,,83,84,
153,,80,84,
154,,85,86,
155,,79,86,
156,,85,87,
157,,81,87,
158,,85,88,
160,,90,91,
161,,79,91,
162,,90,92,
163,,79,92,
164,,90,93,
165,,81,93,
166,,90,94,
167,,81,94,
168,,79,95,
169,,79,96,
174,,79,102,
175,,79,103,
176,,98,104,
177,,80,104,
178,,80,105,
179,,37,105,
180,,80,106,
183,,108,111,
184,,80,112,
186,,114,113,
187,,110,114,
188,,80,115,
189,,116,115,
190,,117,115,
191,,80,118,
192,,81,120,
193,,81,119,
194,,81,121,
195,,81,122,
197,,123,122,
198,,125,124,
199,,125,48,
201,,85,128,
202,,132,131,
203,,130,131,
204,,73,133,
205,,73,132,
206,,73,81,
207,,73,79,
208,,133,134,
209,,135,134,
210,,73,136,
211,,136,137,
212,,138,137,
213,,139,138,
214,,89,88,
215,,136,89,
216,,89,140,
217,,141,140,
218,,142,141,
220,,89,143,
221,,144,145,
222,,136,145,
223,,89,145,
224,,147,146,
225,,147,148,
226,,147,149,
227,,151,150,
228,,147,152,
229,,31,153,
230,,155,154,
231,,73,155,
232,,156,154,
233,,158,157,
234,,73,158,
235,,159,157,
236,,138,159,
237,,157,160,
238,,161,160,
146,subsidiary,74,78,""
142,product,74,72,""
200,not free,110,125,""
196,free,110,123,""
131,president,64,26,""
219,creator,142,140,""
239,,73,161,
241,,160,137,
242,,163,163,
243,,164,163,
244,,73,164,
245,,164,165,
246,,164,167,
247,,164,168,
248,,167,168,
249,,164,169,
250,,157,169,
251,,170,169,
252,,157,170,
253,,170,160,
254,,170,172,
255,,170,171,
256,,170,173,
257,,170,174,
258,,170,175,
259,,170,176,
260,,73,177,
261,,170,178,
262,,170,179,
263,,170,180,
264,,170,181,
265,,170,182,
266,,177,178,
267,,170,183,
268,,170,184,
269,,162,184,
270,,162,183,
271,,170,185,
272,,170,186,
273,,170,187,
274,,170,188,
275,,73,189,
276,,190,189,
277,,73,190,
278,,191,189,
279,,73,194,
282,,170,194,
283,,195,178,
284,,196,192,
285,,170,197,
286,,73,198,
287,,170,199,
288,,198,199,
289,,200,160,
291,,170,201,
292,,200,201,
293,,73,201,
294,,202,147,
295,,203,90,
296,,109,108,
300,,205,196,
301,,206,144,
303,,207,134,
304,,208,130,
305,,209,130,
306,,210,83,
307,,72,82,
309,,81,82,
310,,170,193,
311,,211,129,
312,,73,211,
313,,126,127,
314,,212,126,
315,,19,107,
316,,164,166,
317,,19,76,
318,,19,75,
319,,19,109,
320,,213,85,
308,product,74,82,""
290,partner,162,200,""
240,creator,162,160,""
297,opinion,71,108,""
185,poor example,71,113,""
182,free,25,110,""
280,creator,195,194,""
281,creator,195,177,""
302,creator,207,135,""
298,founder,204,74,""
299,cocreator,204,72,""
136,opinion,67,68,""
321,,154,214,
322,,216,215,
323,,217,215,
324,,217,201,
325,,73,217,
326,,219,220,
327,,219,221,
328,,219,222,
329,,219,223,
330,,219,224,
331,,223,224,
332,,224,225,
333,,219,225,
334,,225,226,
335,,219,226,
336,,225,227,
337,,219,227,
338,,219,228,
339,,227,228,
340,,227,229,
341,,219,229,
342,,219,230,
343,,222,230,
344,,230,231,
345,,219,231,
346,,219,232,
347,,231,232,
348,,219,233,
349,,232,233,
350,,219,234,
351,,230,234,
352,,230,235,
353,,219,235,
354,,230,236,
355,,222,236,
356,,232,237,
357,,131,238,
358,,131,239,
359,,131,240,
360,,241,237,
361,,131,243,
362,,244,168,
363,,72,244,
364,,136,246,
365,,245,246,
366,,170,247,
367,,168,246,
368,,168,247,
369,,164,248,
370,,222,249,
371,,249,250,
372,,250,251,
373,,252,251,
374,,254,251,
375,,253,254,
376,,255,254,
377,,222,256,
378,,257,251,
379,,256,257,
380,,250,258,
381,,259,258,
382,,260,258,
383,,261,260,
384,,222,261,
385,,263,258,
386,,263,251,
387,,262,263,
388,,235,259,
389,,235,252,
390,,254,264,
391,,265,264,
392,,227,265,
393,,249,266,
394,,254,267,
395,,268,267,
396,,269,254,
397,,254,270,
398,,227,271,
399,,271,272,
400,,254,272,
401,,273,274,
402,,31,275,
403,,31,276,
404,,31,277,
405,,254,258,
